load("/Users/annarella/Dropbox/sirius/data/Processed_data/Clim_models/lclimate_models.rds")
load("/Users/annarella/Dropbox/sirius/data/Processed_data/Clim_models/lclimate_models.rds")
load("/Users/annarella/Dropbox/sirius/data/Processed_data/recons/SHL_reconstructions_with_errors.rds")
