"0","plot_components(pred,"
"0","                type, title = NULL,"
"0","                x=as.numeric(rownames(fp))*0.001, components.to.plot = 2, colscomp = c(""blue"",""blue""),"
"0","                line.type = 'o', xlim =c(10,55), ylim = c(-4,11),"
"0","                mean.line = TRUE, add_mod_clim = FALSE, legendbool = F)"
