"0","distGeo(coord_TUL[1:2],cruelev[mask,c(2,1)])"
"1","[1]"
"1"," 7807.27"
"1","
"
"0","tul_point <- cruelev[mask,]"
"0",""
"0","maskt <- (crutemp$Latitude > coord_TUL[2] - deg & crutemp$Latitude <  coord_TUL[2] + deg) & (crutemp$Longitude > coord_TUL[1] - deg & crutemp$Longitude <  coord_TUL[1] + deg)"
"0","crutemp[maskt,]"
