"0","far_point <- cruelev[mask,]"
"0",""
"0","maskt <- (crutemp$Latitude > coord_FAR[2] - deg & crutemp$Latitude <  coord_FAR[2] + deg) & (crutemp$Longitude > coord_FAR[1] - deg & crutemp$Longitude <  coord_FAR[1] + deg)"
"0","crutemp[maskt,]"
