"0","NAMPDnames = sort(colnames(NAMPD_prc_analogue))"
"0","FARnames = colnames(FAR_foss.poll.prc)"
"0","TULnames = colnames(TUL_foss.poll.prc)"
"0","LITnames = colnames(LIT_foss.poll.prc)"
"0",""
"0","print(""NAMPD,FAR,TUL,LIT length:"")"
"1","[1]"
"1"," ""NAMPD,FAR,TUL,LIT length:"""
"1","
"
"0","for(i in list(NAMPDnames,FARnames,TULnames,LITnames)){print(length(i))}"
"1","[1]"
"1"," 134"
"1","
"
"1","[1]"
"1"," 53"
"1","
"
"1","[1]"
"1"," 179"
"1","
"
"1","[1]"
"1"," 59"
"1","
"
"0","ACERNAMnames = c(LITnames,TULnames,FARnames)"
"0","#length(ACERNAM)"
"0","#length(unique(ACERNAM)) #there are 82 repetitions ^^"
"0",""
"0","ACERNAMnames <- sort(unique(ACERNAMnames))"
"0",""
"0","print(""ACERNAMnames, NAMPD, length:"")"
"1","[1]"
"1"," ""ACERNAMnames, NAMPD, length:"""
"1","
"
"0","length(ACERNAMnames)"
"1","[1]"
"1"," 209"
"1","
"
"0","length(NAMPDnames)"
"1","[1]"
"1"," 134"
"1","
"
