"0",""
"0","plot(TUL_foss.time$original_age[TUL_foss.time$CLAM_best != -9999.0],"
"0","     abs(TUL_foss.time$original_age[TUL_foss.time$CLAM_best != -9999.0]-TUL_foss.time$CLAM_best[TUL_foss.time$CLAM_best != -9999.0]), ylab = ""Absolute difference original_age - CALM (yrs)"", xlab = ""years ago (CLAM)"", main = ""Absolute difference between the two age models"")"
