"0","## Do mat of correlations "
"0","# Basedrvie "
"0","#rm(list = ls(all.names = TRUE)) #will clear all objects including hidden objects."
"0","#gc() #free up memrory and report the memory usage."
"0","#basedrive=""/stacywork"""
"0","#basedrive=""/mnt/ssh/dumbledore/stacywork"""
"0","basedrive = '/Users/annarella/Dropbox'"
"0","options(scipen = 999)"
"0",""
"0","library(scales)"
"0","library(rioja)"
"0","library(latex2exp)"
"0","library(nest)"
"0","library(corrplot)"
"0","################"
"0",""
"0","load(paste0(basedrive, ""/sirius/datasets/MNT-EMPD_data_for_reconstructions/MNT_moderndata.RData""))"
"0","load(paste0(basedrive,'/sirius/datasets/MNT-EMPD_data_for_reconstructions/MNT_modernclimate.Rdata'))"
"0","load(paste0(basedrive, ""/sirius/datasets/Events/EVENTS.RData""))"
"0",""
"0","source(file=paste0(basedrive,'/sirius/scr/functions/plot_mont_rec_components.R'))"
"0","source(file=paste0(basedrive,'/sirius/scr/functions/prediction_of_models_and_anlysis.R'))"
"0",""
"0",""
"0","### Choise of subset:"
"0","namevet <- rep('',8)"
"0","clim_metalist <- list()"
"0",""
"0","namevet[1] = 'MNT_all_sites'"
"0","clim_metalist[[1]] <- EMPD_climate_meta"
"0",""
"0","namevet[2] <- 'MNT_Within3000km_restricted'"
"0","clim_metalist[[2]] <- EMPD_climate_meta[EMPD_selected_subsets$distances_to_MNT <=3000000,]"
"0","by"
"1","function (data, INDICES, FUN, ..., simplify = TRUE) 
"
"1","UseMethod(""by"")
"
"1","<bytecode: 0x7fa79a23fde0>
"
"1","<environment: namespace:base>
"
"0","namevet[3] = 'MNT_Within2500km_restricted'"
"0","clim_metalist[[3]] <- EMPD_climate_meta[EMPD_selected_subsets$distances_to_MNT <=2500000,]"
"0",""
"0","namevet[4] = 'MNT_Within2000km_restricted'"
"0","clim_metalist[[4]] <- EMPD_climate_meta[EMPD_selected_subsets$distances_to_MNT <=2000000,]"
"0",""
"0","namevet[5] = 'MNT_Within1500km_restricted'"
"0","clim_metalist[[5]] <- EMPD_climate_meta[EMPD_selected_subsets$distances_to_MNT <=1500000,]"
"0",""
"0","namevet[6] = 'MNT_Mediterranean_restricted'"
"0","clim_metalist[[6]] <- EMPD_climate_meta[EMPD_selected_subsets$maskmediterraneo,]"
"0",""
"0","namevet[7] = 'MNT_above_45lat'"
"0","clim_metalist[[7]] <- EMPD_climate_meta[EMPD_climate_meta$Latitude>45,]"
"0",""
"0","namevet[8] = 'MNT_Bettermask_restricted'"
"0","clim_metalist[[8]] <- EMPD_climate_meta[EMPD_selected_subsets$bettermask,]"
"0",""
"0",""
"0",""
"0","reltax <- colSums(MNT_prc) > length(rownames(MNT_prc))*0.08"
"0","fp <- MNT_prc"
"0",""
"0","list_of_WAPLS <- list()"
"0","list_of_arrpredictions <- list()"
"0",""
"0","minfreq <- 2*10**3"
"0","maxfreq <- 10**4"
"0",""
"0","for (i in c(1:8)){"
"0","  load(paste0(basedrive,'/sirius/datasets/MNT-EMPD_data_for_reconstructions/saved_WAPLS_models/',namevet[i],'.Rdata'))"
"0","  list_of_WAPLS[[i]] <- modelsWAPLS"
"0","  predictions <- predict_Rioja_models_as_list_and_array(modelsWAPLS,fp[,reltax])"
"0","  array_components <- predictions$array_components"
"0","  "
"0","  array_filters <- array(dim = c(dim(array_components),5))"
"0","  dimnames(array_filters) <- dimnames(array_components)"
"0","  dimnames(array_filters)[[4]]<- c('unfiltered','filtered','trend','smoothed','detrended') "
"0","  # filter: between maxfreq and min freq"
"0","  # trend: above maxfreq"
"0","  # smooth: above minfreq"
"0","  # detrend: below minfreq"
"0","  array_filters[,,,1] <- array_components"
"0","  "
"0","  for (var in dimnames(array_components)[[2]]) {"
"0","    for (comp in c(1:5)){"
"0","      tszoo <- zoo(array_components[,var,comp],order.by = as.numeric(rownames(MNT_prc)))"
"0","      array_filters[,var,comp,'filtered'] <-  gaussbandpass(tszoo,minfreq,maxfreq)$filt #filtered signal, between maxfreq and min freq"
"0","      array_filters[,var,comp,'trend'] <-  gaussbandpass(tszoo,minfreq,maxfreq)$trend #trend: above maxfreq"
"0","      array_filters[,var,comp,'smoothed'] <-  gaussbandpass(tszoo,minfreq,maxfreq)$smoothed #smoothed: above minfeq"
"0","      array_filters[,var,comp,'detrended'] <- gaussdetr(tszoo,minfreq)$detr #detrended: below minfreq"
"0","    }"
"0","  }"
"0","  list_of_arrpredictions[[i]] <- array_filters"
"0","  "
"0","}"
"0","names(list_of_arrpredictions) <- namevet"
"0","names(list_of_WAPLS) <- namevet"
"0",""
"0",""
"0","View(list_of_WAPLS)"
"0","comp = 1"
"0","corPT <- array(dim = c(2,3,8,5,5))"
"0","dimnames(corPT)[[1]] <- c('reconstruction','calibration')"
"0","dimnames(corPT)[[2]] <- c('Tann-Pann','Tdjf-Pdfj','Tjja-Pjja')"
"0","dimnames(corPT)[[3]] <- namevet"
"0","dimnames(corPT)[[4]] <- dimnames(list_of_arrpredictions[[1]])[[3]]"
"0","dimnames(corPT)[[5]] <- c('unfiltered','filtered','trend','smoothed','detrended') "
"0",""
"0","for (k in c(1:5)){ #filters"
"0","for (j in c(1:5)){ #components"
"0","for (i in c(1:8)){ #reconstructions"
"0","  corPT[1,1,i,j,k] <-  cor(list_of_arrpredictions[[i]][,'Tann',j,k],list_of_arrpredictions[[i]][,'Pann',j,k])"
"0","  corPT[2,1,i,1,1] <-  cor(list_of_WAPLS[[i]][['Tann']]$x,list_of_WAPLS[[i]][['Pann']]$x)"
"0","  "
"0","  corPT[1,2,i,j,k] <-  cor(list_of_arrpredictions[[i]][,'Tdjf',j,k],list_of_arrpredictions[[i]][,'Pdjf',j,k])"
"0","  corPT[2,2,i,1,1] <-  cor(list_of_WAPLS[[i]][['Tdjf']]$x,list_of_WAPLS[[i]][['Pdjf']]$x)"
"0","  "
"0","  corPT[1,3,i,j,k] <-  cor(list_of_arrpredictions[[i]][,'Tjja',j,k],list_of_arrpredictions[[i]][,'Pjja',j,k])"
"0","  corPT[2,3,i,1,1] <-  cor(list_of_WAPLS[[i]][['Tjja']]$x,list_of_WAPLS[[i]][['Pjja']]$x)"
"0","}"
"0","}"
"0","}"
"0",""
"0","par(mfrow=c(1,1))"
"0","#########"
"0","#pdf(paste0(basedrive,""/sirius/temp/MNT_various_restriction_correlations.pdf""),width = 10, height  = 6)"
"0",""
"0",""
"0","#pdf(paste0(basedrive,""/sirius/temp/MNT_various_restriction_correlations-PTann.pdf""),width = 10, height  = 6)"
"0","comp = 1"
"0","comp2 = 2"
"0","plot(corPT[2,1,,1,1], main = 'Tann-Pann correlation', ylim= c(-1,1),xaxt=""n"", ylab = 'correlation Tann-Pann ', xlab='')"
