"0","minfreq"
"1","[1]"
"1"," 2000"
"1","
"
"0","maxfreq"
"1","[1]"
"1"," 10000"
"1","
"
"0","intvars <- dimnames(list_of_arrpredictions[[1]])[[2]][c(1,2,4,8,9,11)]"
"0",""
"0",""
"0",""
"0","type = ""trend"""
"0","type = ""unfiltered"""
"0","type = ""filtered"""
"0",""
"0","comp = 1"
"0","comp2 = 2"
"0","plot(corPT[2,1,,1,1], main = paste0('Tann-Pann correlation ',type,' signal'), ylim= c(-1,1),xaxt=""n"","
"0","     ylab = 'correlation Tann-Pann ', xlab='')"
