"0","#Example file of EMPD-MNT"
"0","load(paste0(basedrive, ""/sirius/datasets/MNT-EMPD_data_for_reconstructions/MNT_moderndata.RData""))"
"0","#rm(EMPD_climate_meta, EMPD_prc, EMPD_selected_subsets, MNT_foss.time, MNT_prc)"
