"0","#x <- c(-90:-10)"
"0","#lines(x, -x+8,col=""forestgreen"")"
"0",""
"0","legend(""topleft"", legend = c(""Fargher Lake"",""Little Lake"",""Lake Tulane"",""Lago Grande di Monticchio""), col = c(""maroon"",""magenta"",""orange"",""yellow""), pch  = c(9,4,7,3), bty='n')"
