"0","# Fargher Lake, Washington"
"0","load(paste0(basedrive,""/sirius/datasets/MT_fossil_data/FAR_fossil.RData"")) "
"0","#rm(FAR_foss.poll.cnt,FAR_foss.poll.prc,FAR_foss.time)"
"0","rm(FAR_foss.poll.cnt)"
"0",""
"0","# Little Lake, Oregon"
"0","load(paste0(basedrive,""/sirius/datasets/MT_fossil_data/LIT_fossil.RData"")) "
"0","#rm(LIT_foss.poll.cnt,LIT_foss.poll.prc,LIT_foss.time)"
"0","rm(LIT_foss.poll.cnt)"
"0",""
"0","# Lake Tulane, Florida"
"0","load(paste0(basedrive,""/sirius/datasets/MT_fossil_data/TUL_fossil.RData"")) "
"0","#rm(TUL_foss.poll.cnt,TUL_foss.poll.prc,TUL_foss.time)"
"0","rm(TUL_foss.poll.cnt)"
"0",""
"0","coord_TUL <- c(-81.504,27.586, 36) #lon, lat, elevation"
"0","coord_LIT <- c(-123.584,44.168, 217)"
"0","coord_FAR <- c(-122.519,45.886, 200)"
