"0","fp <- TUL_prc"
"0","name <- ""Tulane"""
"0","model <- waplstann"
"0","type <- ""Tann"""
"0",""
"0","pred <- predict(model,fp)"
"0","plot_components(pred,"
"0","                type, title = paste0(name,"" lake "",type),"
"0","                x=as.numeric(rownames(fp))*0.001,"
"0","                line.type = 'o', xlim = c(0,60),"
"0","                mean.line = TRUE, add_mod_clim = FALSE, legendbool = T)"
