"0","#plot(c(-167, -14), c(20,83), type = ""n"", xlab=""longitude"", ylab=""latitude [°N]"", main=""NAMPD sites"")"
"0","#map(database = ""world"", add = TRUE, col = ""black"", interior = FALSE)"
"0","extent <- c(-168,-14,20,83)"
"0","plotRGB(mondo,ext = extent(extent), interpolate= TRUE, axes=TRUE, xlab=""Longitude"",ylab=""Latitude"")"
