"0","ACER_harm2.mo <- read_excel(paste0(basedrive,""/sirius/datasets/ACER_data/harmonization_MO/taxa/harmonized_taxa_2.xlsx""))"
"0","ACER_harm1.mo <- read_excel(paste0(basedrive,""/sirius/datasets/ACER_data/harmonization_MO/taxa/harmonized_taxa_1.xlsx""))"
"0",""
"0",""
"0","ACERNAM <- data.frame(taxon = ACERNAMnames, harm2.mo=ACER_harm2.mo[which(ACER_harm2.mo$taxon %in% ACERNAMnames),]$taxon_harmonized)"
"0","ACERNAM$FARocc <- rep(NA, length(ACERNAM$taxon))"
"0","ACERNAM$LITocc <- rep(NA, length(ACERNAM$taxon))"
"0","ACERNAM$TULocc <- rep(NA, length(ACERNAM$taxon))"
"0",""
"0","#aggiungo dato sulle occorrenze"
"0","for (i in colnames(FAR_foss.poll.prc)){ACERNAM[ACERNAM$taxon == i,]$FARocc <- sum(FAR_foss.poll.prc[,i])}"
"0","for (i in colnames(LIT_foss.poll.prc)){ACERNAM[ACERNAM$taxon == i,]$LITocc <- sum(LIT_foss.poll.prc[,i])}"
"0","for (i in colnames(TUL_foss.poll.prc)){ACERNAM[ACERNAM$taxon == i,]$TULocc <- sum(TUL_foss.poll.prc[,i])}"
"0",""
"0","#check che è giusto"
"0","round(sum(LIT_foss.poll.prc)) == round(sum(ACERNAM$LITocc, na.rm = TRUE))"
"1","[1]"
"1"," TRUE"
"1","
"
"0","length(unique(ACERNAM$harm2.mo))"
"1","[1]"
"1"," 177"
"1","
"
"0","# da 209 a 177! :D"
"0","unique(ACERNAM$harm2.mo)[1:10]"
"1"," [1]"
"1"," Abies        "
"1"," Acalypha     "
"1"," Acer         "
"1"," Alnus        "
"1"," Amaranthaceae"
"1"," Ambrosia     "
"1","
"
"1"," [7]"
"1"," Anacardiaceae"
"1"," Apiaceae     "
"1"," Apocynum     "
"1"," Arceuthobium "
"1","
"
"1","177 "
"1",""
"1","Levels: "
"1",""
"1","Abies Acalypha Acer Alnus Amaranthaceae Ambrosia Anacardiaceae ... Zanthoxylum"
"1",""
"1","
"
"0","rm(ACER_harm1.mo,ACER_harm2.mo)"
