"";"km1000";"km1050";"km1100";"km1150";"km1200";"km1250";"km1300";"km1350";"km1400";"km1450";"km1500";"km1550";"km1600";"km1650";"km1700";"km1750";"km1800";"km1850";"km1900";"km1950";"km2000";"km2050";"km2100";"km2150";"km2200";"km2250";"km2300";"km2350";"km2400";"km2450";"km2500";"km2550";"km2600";"km2650";"km2700";"km2750";"km2800";"km2850";"km2900";"km2950";"km3000";"km3050";"km3100";"km3150";"km3200";"km3250";"km3300";"km3350";"km3400";"km3450";"km3500";"km3550";"km3600";"km3650";"km3700";"km3750";"km3800";"km3850";"km3900";"km3950";"km4000"
"Tann";0,181986023625577;0,237773670627191;0,29195651234326;0,540434112105078;0,747433227690855;0,865181658507658;0,903308127927501;0,867119543869432;0,898485577778081;0,870329458504108;0,817625571401004;0,802716183089509;0,825594955184944;0,807202576838553;0,791353343748919;0,784625704081036;0,774776791468085;0,754016375836115;0,783276260931031;0,746874134827495;0,763725907929915;0,766573915844893;0,784104408308325;0,765994163239907;0,74005236788081;0,696812728717839;0,71927605183957;0,729159182723659;0,746500311233846;0,78200790136564;0,820770023560326;0,859282970260602;0,847961807725951;0,843220903379955;0,843647300711567;0,823399093600369;0,820636734338884;0,824327086484626;0,832129654982981;0,82238444134477;0,807016624650652;0,809151851212889;0,823871989371805;0,797488038534784;0,782912261889024;0,784231493985838;0,787853767262977;0,78613915037605;0,785507249924528;0,788284082963843;0,790919982497447;0,799613321944741;0,807369853949099;0,810875523637127;0,811296637908295;0,812385881051414;0,816018555815345;0,818607400342575;0,820472365698438;0,823138643626577;0,816748849521277
"Pann";2,75711996573667;2,05809435298503;1,7401351472084;1,85156549292908;2,15480391335944;2,31402736862834;2,35291304327228;2,20550014538654;2,09419175451593;1,97706700418742;1,83154297259998;1,79370762105261;1,76164047461987;1,74989968009703;1,76825207896724;1,74958183037886;1,76519882862766;1,80584190310618;1,82183073644383;1,78593392065298;1,74933258947061;1,68265321896133;1,72818677926901;1,67906678533673;1,67266288927234;1,61778120233441;1,61108624564454;1,60137075801811;1,57001957014809;1,50149663380654;1,49460899408525;1,47320554427651;1,43174289645774;1,4073444101935;1,3325278555165;1,26831331006495;1,25752096430168;1,25196374538058;1,21919629299335;1,18748023515822;1,15402262553579;1,1401362330803;1,13876254954277;1,14854661237705;1,12543666222537;1,11813294297707;1,08765148495059;1,07528794734791;1,06887107819505;1,05239922526137;1,02425503261533;0,990852434228471;0,96339851942111;0,944691079466559;0,940403115294479;0,938196720864841;0,9371665118214;0,934892817772792;0,925179830988278;0,919761936742194;0,911826308702917
"Tdjf";0,297969541619005;0,292238899050086;0,346523341307704;0,659838504510375;0,929358848078255;1,09518010527791;1,15505351581228;1,09705399316927;1,09842051649901;1,04639927449212;0,967904918634491;0,937223463503283;0,927504082102859;0,894627149058995;0,877483781562875;0,866494179601955;0,859874361550824;0,841026812099875;0,875175032220877;0,832484537834257;0,847590931470914;0,849089765365856;0,862346125655866;0,826685432346717;0,780315012945853;0,700543613219129;0,696690517465287;0,696845607215223;0,701959114824078;0,715380571452061;0,748237522115591;0,778912922894255;0,766066910019926;0,755851402500746;0,748548033985344;0,721396373306803;0,722320779110021;0,725816536507112;0,736702094190975;0,726096527516956;0,714568962528967;0,723211082744674;0,734938369904799;0,721695627764899;0,711832771199571;0,711295454686739;0,710386237612917;0,702170486300364;0,696945527118274;0,697093388886528;0,698298728714992;0,70594171452062;0,710823352186291;0,711600171568526;0,712684024894893;0,713804678993909;0,717419815347841;0,719380168826203;0,719031239900109;0,72130043019323;0,716850308679363
"Pdjf";2,56459560117643;1,91883782385176;1,3476934366527;1,50433138328103;1,83415022597734;2,00671612896313;2,07000315533757;1,91655790349691;1,79940198482548;1,69324464568307;1,58065962467675;1,54835154407222;1,50275317437532;1,49724148224082;1,51342997945879;1,49636614169373;1,51383337769179;1,54597721070749;1,47821958644562;1,46010162201448;1,44288680410308;1,42111113671265;1,45745757636341;1,42506790867051;1,42266905052693;1,39828259966623;1,39621064249086;1,39275659128533;1,3718042188977;1,303732207197;1,28180601941982;1,24167784550755;1,22540817022323;1,20671541043946;1,13876624147786;1,08063827936562;1,06655989490723;1,05599197467097;1,0186690060362;0,993908593195968;0,978394738583184;0,967929051678785;0,965273611408545;0,982465300226088;0,960706715151656;0,953346940489569;0,92955340753777;0,919165027331398;0,917944837718081;0,903293531763074;0,880237791512215;0,848334829832887;0,820887294209206;0,801085538534883;0,795492110521273;0,792131565670871;0,78621471184874;0,783183410668286;0,773293783308269;0,763747376226907;0,757153782393142
"Tjja";0,552207385526646;0,518175548460912;0,546388976034152;0,503183037312144;0,540894302159886;0,561420703812903;0,567452596566062;0,598571197156191;0,676446197953504;0,736179017727313;0,770889299224559;0,818830544495933;0,910392177676252;0,934697359663629;0,930028549416458;0,902190146519719;0,885784240462394;0,86288477587801;0,823061012530065;0,783208280206535;0,736924118498962;0,678197879142139;0,672612041123192;0,65995465265071;0,649658299922098;0,613706097594218;0,634450852971342;0,640407809099453;0,665523340067176;0,716590272531322;0,747041381794721;0,781913827025013;0,778438539436336;0,785943145519004;0,806572963739967;0,804322256588384;0,802401063088321;0,804725412590416;0,800235214751068;0,793995532607654;0,779033166963646;0,777214709588785;0,792727785061861;0,749703983632379;0,721100919671369;0,72430319041668;0,728284423452248;0,738953515322741;0,745729237893675;0,749457624136667;0,748068182006223;0,74799498256049;0,750132219678619;0,750875022934157;0,750483616413795;0,751029402127421;0,753929255295384;0,756052085782556;0,759081092924704;0,759695901018307;0,74486530839633
"Pjja";1,77901102012996;1,40010839564376;1,22500433543115;1,39635886103937;1,6039632305733;1,69340283412005;1,71864802986437;1,61938707628656;1,57242278731921;1,47310511174299;1,35264308675118;1,31849872005049;1,31147874329454;1,29862884216743;1,31680245265511;1,31854758386955;1,33275241013541;1,37221689718397;1,39766809292726;1,36962865924691;1,3684500883368;1,3264526813153;1,36898720492967;1,34091954836935;1,34274537908934;1,2987100640039;1,30674479024852;1,30521482883024;1,27879611900995;1,22082194859759;1,2086069933661;1,1984297742676;1,16451812468833;1,14919977519718;1,09850650622363;1,04347422773834;1,03464046060852;1,03235560760468;1,01222178736136;0,992639438296814;0,97006333844019;0,974648398944576;0,979097111305201;0,995130627235839;0,97850378623022;0,976091896804271;0,948506173854906;0,933956332532219;0,921544064680378;0,904030404294598;0,879412819470589;0,852166894915798;0,830540748462999;0,817078293879429;0,814248051132498;0,812991049212386;0,812630926832488;0,811351170222642;0,803649922843313;0,800256454178946;0,793293186922105
"Tmam";0,200680328688715;0,271798112672785;0,314516959515086;0,424429801867768;0,524546545570564;0,578024523786467;0,59033284351216;0,599686882443908;0,667982576715233;0,685726563123996;0,681106657608081;0,698632080778591;0,764491873464118;0,770074350015789;0,76023803279239;0,744408133961003;0,731888032706076;0,706451736982055;0,696749859446049;0,657882249442949;0,658423375019319;0,653786040445752;0,660409652961177;0,63920370767975;0,615974036002157;0,583085131077666;0,606644317158799;0,618652413774753;0,64029982646219;0,686708917076497;0,726387618481473;0,769484467101237;0,760155040494403;0,759136760917154;0,780253732396852;0,769149748693508;0,766040767742086;0,768779256164163;0,780984126905495;0,768987597925722;0,755737945735955;0,757778110692914;0,769427620602021;0,740008427571977;0,726808478645867;0,728625102065869;0,736275394493822;0,735979175666038;0,736218415605713;0,741035694769533;0,746840703353456;0,761867492807279;0,776387163732165;0,784548923684694;0,785706190832583;0,787057837610513;0,791095838499035;0,794439725730811;0,798773100315119;0,802888420536041;0,797405292169588
"Pmam";2,44745391579225;1,83796388617594;1,56023967354353;1,7023409831611;2,00051450402194;2,13942115047953;2,15533467444104;2,02285847412981;1,93262265448694;1,82481970817005;1,68234120755979;1,64576301479633;1,61733050074862;1,6054140328531;1,60912962634737;1,57731506777666;1,57622029346763;1,60552214773951;1,63354227465585;1,59394028226069;1,54706333260532;1,48948571173315;1,52194803853318;1,48364042416827;1,46773390468146;1,41292980235413;1,39013011313411;1,37565971934632;1,3491769208102;1,30769945730081;1,32470547818534;1,32277269189775;1,27901665307598;1,25419709217533;1,18775796489353;1,12999830337594;1,12779497842642;1,12143342263764;1,08867582569533;1,05644642377559;1,03763171496017;1,03283693374605;1,03027592716965;1,04160043469415;1,01842350421788;1,00792521586735;0,980163381280786;0,969444212810649;0,966583230601548;0,954122943776729;0,929899512278458;0,900213517813485;0,87532067353288;0,857799173647589;0,853912272100266;0,851973106342734;0,851138087840814;0,848910912562426;0,839797913804966;0,834915450560177;0,827803973600262
"Tson";0,467115391914803;0,363494425599843;0,408662275363645;0,714750835742666;0,97400590118881;1,11987244837876;1,17063165045607;1,10772296855375;1,10963966269489;1,06008828973684;0,98312137372088;0,953358872285911;0,947641144744321;0,917495892161226;0,902271007835996;0,897249901999328;0,892963530401057;0,8815905654314;0,926698530881644;0,892190642033419;0,904599034071809;0,900227905120729;0,927569888791074;0,906821114975426;0,874697466982155;0,814068521221064;0,833277503256064;0,838452819014115;0,849180076400317;0,86927237696345;0,90528893657652;0,938356349275922;0,925431038046303;0,918323652378263;0,905747036812821;0,881274536141593;0,877201461529333;0,880882867838306;0,885120753143497;0,875632952975398;0,858465878782046;0,85767317796931;0,873794895057246;0,846618109741944;0,83026379293866;0,831678778824411;0,834273970223175;0,832212019872108;0,831768141321841;0,834081162780717;0,836710191244901;0,844117064029823;0,850634887108075;0,853522983065396;0,853143609195953;0,854026930753548;0,857025136581522;0,859476694728453;0,860771137118842;0,862649653546025;0,855908832964038
"Pson";3,36984428102043;2,64948640129795;2,39969907173053;2,28691889443467;2,50789516707372;2,65228225572061;2,68110084832354;2,5020562651683;2,3562218717294;2,22401797793567;2,06773631327839;2,02563685131506;1,9783327415517;1,96956995443348;1,99048359509251;1,95120723872799;1,96668535449222;2,00619300544163;2,00860134173348;1,97499729414487;1,95965884848263;1,91017617237112;1,94591486388807;1,89276405611885;1,88350839353561;1,83307018230047;1,81550384001886;1,80024550921946;1,76120852179643;1,65528201390327;1,63562631724104;1,58665278500422;1,56221894746207;1,54125954361109;1,46202589952916;1,39224772188438;1,36698263749914;1,35914304875721;1,32214136171719;1,25753381404639;1,16787947748678;1,04335169100885;1,03108714454705;1,01105546521442;0,991710395424638;0,98703434000244;0,963228443691469;0,956224166336361;0,953895076619775;0,94053819480597;0,917260403794518;0,886106126564507;0,860173498226317;0,842884386559673;0,838483441378292;0,835920365455248;0,833537035809966;0,831307173749936;0,822439730301829;0,815706628998633;0,809271345017954
"MTWA";0,355160633057071;0,381862576120515;0,433944916187527;0,483679023547841;0,579137599202378;0,623762394227413;0,63518980713119;0,644972516408064;0,710884115286023;0,744158509337369;0,754556737185942;0,788124988202321;0,871674610375371;0,891467838536192;0,882998428066177;0,862394197295077;0,846494308733781;0,823830088719629;0,808140965810352;0,771712802881689;0,736666434891227;0,682382424414984;0,683084609567874;0,675967619491474;0,672734566930431;0,64344621852675;0,66830162692617;0,67605831375464;0,700967102455139;0,750083706157695;0,775735908139747;0,803363408238565;0,803830541184439;0,813216777822945;0,831452391847398;0,829494905492246;0,827675679444243;0,830812443219552;0,823882324046906;0,818084136026796;0,802144159580422;0,7964278469898;0,814514743087597;0,771124148604422;0,736876642781468;0,741261965335477;0,743722751838812;0,756526517244384;0,764822837748972;0,767344201476537;0,762844248135466;0,757561370747639;0,755019619537611;0,750769229192535;0,749132399052864;0,749168206877022;0,75129067992387;0,752473960105196;0,753939030507732;0,753337593972036;0,736521667165703
"MPWA";1,59526787317209;1,19951038876923;1,14018993922338;1,16547636801919;1,27991710924739;1,40188688959474;1,50909478679532;1,46684677343173;1,45669545753773;1,39987949191967;1,29593193827732;1,26697001654202;1,25839871742359;1,24905727124851;1,28275293650667;1,28480812873196;1,30715906727917;1,36216451248199;1,41279070117898;1,38335328246591;1,36629625290772;1,29762878908661;1,33862957541639;1,29480857420024;1,2999451701019;1,25249416381939;1,26607493886522;1,2653619969706;1,23166420599574;1,16813319443309;1,14961200461994;1,14188946944447;1,11852686906932;1,11373862464123;1,07800297345601;1,02634889782272;1,0134384953891;1,01257247463907;0,997584906440092;0,981950165947573;0,954080441709341;0,954278668654371;0,964289357797526;0,978319105970472;0,96366994734077;0,965624187483536;0,941378036936697;0,921221795827441;0,903003823974565;0,881946507963854;0,859693252802118;0,836575775402246;0,819515149216946;0,809677900952737;0,807079860494116;0,806213514744812;0,805615575091398;0,805116401346888;0,798830314154726;0,796454051402144;0,789366477119774
"MTCO";0,306902961522766;0,297134941839753;0,353274385677451;0,678221837877523;0,959595476436769;1,13197628528196;1,19550055532737;1,13423667517601;1,13185149920524;1,0771834673112;0,995915531434921;0,96456468259056;0,952997504351767;0,919481859909138;0,902792594872512;0,890723519608849;0,884559389474114;0,866447964487407;0,90066808110514;0,856605741132826;0,869297280379872;0,868757919238674;0,882106125192688;0,84611415683985;0,800443301872085;0,719362122531541;0,714119707867421;0,713434181785325;0,717316216411937;0,728654438192332;0,760918380376249;0,790091352817487;0,775359045262837;0,764195048225244;0,754011937450717;0,72490162904258;0,725497858347716;0,728736952838638;0,737986070897636;0,726853291883608;0,71484461248899;0,723691084227645;0,734517603836818;0,721888674919263;0,711842448909952;0,710408249996005;0,708029458044578;0,699034617590739;0,693301863856551;0,692617942932119;0,692779523511264;0,699031274633754;0,702570040730085;0,702496078301062;0,703507089754057;0,704516428516272;0,707991545026605;0,709825812967192;0,709034404358636;0,710921032415264;0,706290527264613
"MPCO";2,31905951767036;1,70438576287304;1,13880611362707;1,36207856717979;1,70637909936559;1,88801625010597;1,96594485357024;1,8197758405034;1,70890319488975;1,60695866660602;1,49660683005684;1,46568714993861;1,42444515985322;1,41851827397666;1,43378468599547;1,42291450817783;1,43945383061754;1,46991853462137;1,39885412586596;1,38244806782537;1,39109707881363;1,38781030391721;1,42336146015374;1,39173629345037;1,39016159947278;1,36619026984295;1,36585538916335;1,36185170817451;1,33981733734629;1,26891559264058;1,24279199300527;1,20196183142833;1,18732413880273;1,16994133147879;1,1042054353313;1,04857528542873;1,03614997405863;1,0265020606522;0,990730412221713;0,966652541942662;0,951859937637991;0,939420980877955;0,937439745133438;0,955315916070003;0,934233014720223;0,927519573659735;0,904192483815726;0,894328097898454;0,892790602419628;0,878315867374256;0,855342849512352;0,82429633121731;0,797530853896196;0,777903349034505;0,772218426246269;0,768729517168376;0,762439948520806;0,759389239443522;0,749666283336638;0,740103732815003;0,733659436515626
"random";0,0117633258941851;0,00573841093873847;0,00579549835583503;0,00323154424246976;0,00501712042672211;0,00206254325423973;0,00482899313824939;0,00998939214225093;0,00231653071402177;0,00512077104010536;0,00268261152507278;0,0029985526035886;0,00110143114480684;0,00562412380473025;0,00180007300651882;0,00142584404529671;0,00379124869980774;0,00422610444038575;0,00229966150596838;0,00179542225167994;0,00416591785201397;0,0034073190215174;0,00248502097975565;0,00221556817970954;0,0039849043322127;0,00218421458355103;0,0020014332773936;0,00250540543766351;0,00213891948337982;0,0026817021341302;0,00471548227124992;0,00167210225430277;0,00123012765206707;0,00216409632820662;0,00179238582765597;0,00195719953940957;0,00169951734856439;0,00255567663796696;0,00221820402307548;0,00133198760465141;0,0041679258339528;0,00149037883057555;0,00105539637992398;0,000959591477594693;0,00185572157263362;0,00127161206968716;0,0017529810391224;0,00229849185363583;0,00256261133548802;0,000840109735733197;0,00120991645887307;0,00210384951563849;0,00237841233102227;0,00161403445737859;0,00271953981804237;0,000980032212370648;0,00163987021218384;0,000620210727975998;0,00179455686520388;0,000695876505581089;0,00135533562296468
