"0","MNT.exp.array <- array_filters_expanded(MNT.array)"
"0","LIT.exp.array <- array_filters_expanded(LIT.array)"
"0","TUL.exp.array <- array_filters_expanded(TUL.array)"
"0","FAR.exp.array <- array_filters_expanded(FAR.array)"
