"0","minfreqka = 2"
"0","maxfreqka = 10"
"0","  array.LOVECLIMMis3 <- array(dim = c(dim(LOVECLIMMis3),5))"
"0","  dimnames(array.LOVECLIMMis3) <- dimnames(LOVECLIMMis3)"
"0","  dimnames(array.LOVECLIMMis3)[[4]]<- c('unfiltered','filtered','trend','smoothed','detrended') "
"0",""
"0","  time <- as.numeric(dimnames(LOVECLIMMis3)[[3]])*0.001"
"0","    dimnames(array.LOVECLIMMis3)[[3]] <- time"
"0","  # filter: between maxfreq and min freq"
"0","  # trend: above maxfreq"
"0","  # smooth: above minfreq"
"0","  # detrend: below minfreq"
"0","  array.LOVECLIMMis3[,,,1] <- LOVECLIMMis3"
"0","  "
"0","  for (site in dimnames(LOVECLIMMis3)[[1]]){"
"0","    print(site)"
"0","  for (var in dimnames(LOVECLIMMis3)[[2]]) {"
"0","    print(var)"
"0","      tszoo <- zoo(LOVECLIMMis3[site,var,],order.by=time)"
"0","      gaussbpasss <- gaussbandpass(tszoo,minfreqka,maxfreqka)"
"0","      gaussdetrrr <- gaussdetr(tszoo,minfreqka)"
"0","      "
"0","      array.LOVECLIMMis3[site,var,,'filtered'] <- gaussbpasss$filt #filtered signal, between maxfreq and min freq"
"0","      array.LOVECLIMMis3[site,var,,'trend'] <-  gaussbpasss$trend #trend: above maxfreq"
"0","      array.LOVECLIMMis3[site,var,,'smoothed'] <-  gaussbpasss$smoothed #smoothed: above minfeq"
"0","      array.LOVECLIMMis3[site,var,,'detrended'] <- gaussdetrrr$detr #detrended: below minfreq"
"0","      "
"0",""
"0","  }"
"0","  }"
"1","[1]"
"1"," ""FAR"""
"1","
"
"1","[1]"
"1"," ""Tann"""
"1","
"
"1","[1]"
"1"," ""Pann"""
"1","
"
"1","[1]"
"1"," ""LIT"""
"1","
"
"1","[1]"
"1"," ""Tann"""
"1","
"
"1","[1]"
"1"," ""Pann"""
"1","
"
"1","[1]"
"1"," ""MNT"""
"1","
"
"1","[1]"
"1"," ""Tann"""
"1","
"
"1","[1]"
"1"," ""Pann"""
"1","
"
"1","[1]"
"1"," ""SHL"""
"1","
"
"1","[1]"
"1"," ""Tann"""
"1","
"
"1","[1]"
"1"," ""Pann"""
"1","
"
"1","[1]"
"1"," ""TUL"""
"1","
"
"1","[1]"
"1"," ""Tann"""
"1","
"
"1","[1]"
"1"," ""Pann"""
"1","
"
