"0",""
"0",""
"0","legend(""top"", legend = c(""3000km from Fargher Lake"",""3000km from Little Lake"",""3000km from Lake Tulane"",""3000km from Lago Grande di Monticchio""), col = c(""maroon"",""magenta"",""orange"",""yellow""), lty  = 1, bty='n')"
