"0","waplstann <- WAPLS(NAMPD_prc, NAMPD_climate$Tann)"
"0","waplspann <- WAPLS(NAMPD_prc, NAMPD_climate$Pann)"
"0","waplspjja <- WAPLS(NAMPD_prc, NAMPD_climate$Pjja)"
"0","waplspdjf <- WAPLS(NAMPD_prc, NAMPD_climate$Pdjf)"
"0","waplstjja <- WAPLS(NAMPD_prc, NAMPD_climate$Tjja)"
"0","waplstdjf <- WAPLS(NAMPD_prc, NAMPD_climate$Tdjf)"
"0","source(file=paste0(basedrive,'/sirius/scr/functions/plot_mont_rec_components.R'))"
"0","load(paste0(basedrive, ""/sirius/datasets/Events/EVENTS.RData""))"
